{
  "customers": [
    {
      "name": "Fernando",
      "age": "40",
      "code": "COGF",
      "registeredBy": "110417233201390517091",
      "id": 1
    },
    {
      "name": "Lusci",
      "age": "38",
      "code": "TOAK",
      "registeredBy": "110417233201390517091",
      "id": 2
    },
    {
      "name": "Alaní",
      "age": "12",
      "code": "OTAL",
      "registeredBy": "110417233201390517091",
      "id": 3
    }
  ]
}